Final Project for the course: 2020/21/2 DPSZ16-KVAN-106 1
…
Based on the histograms, I can see some anomalies - Duration is mostly around the 20 min mark, which makes sense, as it is the standard anime runtime. - More and more animes premiere each year, with a very low amount of anime produced before 2000s - There are some animes that are scored and favoured by extrememly many people - these animes are probably the ones that “got mainstream” and are not only watched by anime “otakus” (experts of anime), but casual watchers. But also, there are huge amount of animes that do not get much traction, these are only known by their own fanbase.

For modeling, I would like to use a less heterogenous and chaotic dataset, to be able to asnwer more specific questions. To this end I further investigate varables, starting with runtime.

## # A tibble: 44 x 2
##    duration_min     n
##    <fct>        <int>
##  1 24            1311
##  2 23             705
##  3 25             639
##  4 5              192
##  5 3              146
##  6 22             110
##  7 2               81
##  8 1               67
##  9 4               65
## 10 20              64
## # ... with 34 more rows
…
It appears that animes are scored better the more mature they get, but when it involves nudity and gets the R+ rating, the score declines. The best animes according to scores are rated R or PG-13, which include the teens and young adult oriented shows, who are the major part of the audience. Based on the figures, animes are appreciated more when they are not for children and involve more mature conflicts.

6. Are there seasonal trends in terms of narratives?

For this analysis, I use the approach taken from the TidyTuesday screencast (https://www.youtube.com/watch?v=3PecUbnuYC4), whereby one can use TidyText to tokenize running text and investigate the vocabulary and word usage of certain groups. I will check whether there exists any trend that could differentiate the word usage of anime description starting in different seasons. E.g. one could expect to have more grim animes for the winter, or more lighthearted ones for the summer.

After proper cleaning we can start the tokenization

## # A tibble: 177,080 x 3
##    name         premiere_season word         
##    <chr>        <chr>           <chr>        
##  1 Cowboy Bebop Spring          2071         
##  2 Cowboy Bebop Spring          humanity     
##  3 Cowboy Bebop Spring          colonized    
##  4 Cowboy Bebop Spring          planets      
##  5 Cowboy Bebop Spring          moons        
##  6 Cowboy Bebop Spring          solar        
##  7 Cowboy Bebop Spring          system       
##  8 Cowboy Bebop Spring          leaving      
##  9 Cowboy Bebop Spring          uninhabitable
## 10 Cowboy Bebop Spring          surface      
## # ... with 177,070 more rows

## # A tibble: 48,602 x 3
##    premiere_season word       n
##    <chr>           <chr>  <int>
##  1 Spring          world    503
##  2 Fall            world    443
##  3 Spring          school   385
##  4 Fall            school   372
##  5 Spring          life     337
##  6 Summer          school   309
##  7 Fall            life     305
##  8 Winter          school   278
##  9 Winter          world    265
## 10 Spring          girl     261
## # ... with 48,592 more rows
…
